[{"accountID":1,"IBAN":"IS76 4771 7644 8212 6882 2255 60","balance":"$682.02","userID":1},
{"accountID":2,"IBAN":"LT02 0846 0327 3917 8538","balance":"$384.02","userID":2},
{"accountID":3,"IBAN":"LT54 5638 6474 1030 8931","balance":"$492.53","userID":3},
{"accountID":4,"IBAN":"KW94 OTYA DUTC HPQX A1CF MCPN CLDS YM","balance":"$541.75","userID":4},
{"accountID":5,"IBAN":"LV64 DJZJ 4CTF RYHT 1TFI N","balance":"$639.83","userID":5},
{"accountID":6,"IBAN":"FR82 6939 7873 88NG VJ7S Z4TH B65","balance":"$510.88","userID":6},
{"accountID":7,"IBAN":"ME02 7294 8939 2093 4149 40","balance":"$335.05","userID":7},
{"accountID":8,"IBAN":"RO13 DWKW UTTY GDYL 4U6N CO2G","balance":"$642.52","userID":8},
{"accountID":9,"IBAN":"NO34 4606 7889 425","balance":"$727.75","userID":9},
{"accountID":10,"IBAN":"FR87 3183 1634 83P3 OEXA IHW1 Y10","balance":"$80.91","userID":10},
{"accountID":11,"IBAN":"FR67 7468 2900 526U B2YC 6QRZ C53","balance":"$505.67","userID":11},
{"accountID":12,"IBAN":"MK16 748E V35Q RPRB 497","balance":"$549.35","userID":12},
{"accountID":13,"IBAN":"PS24 PQFV Q6KV ZDR5 FLUK X6QZ CK6U J","balance":"$456.77","userID":13},
{"accountID":14,"IBAN":"FI19 4922 6833 6906 64","balance":"$579.51","userID":14},
{"accountID":15,"IBAN":"IS82 3710 1891 7723 1723 6746 51","balance":"$174.45","userID":15},
{"accountID":16,"IBAN":"MT40 DSHF 0483 9CRI T5BW TUNG 4MV4 OUL","balance":"$939.55","userID":16},
{"accountID":17,"IBAN":"AE89 1413 6357 1884 0420 190","balance":"$332.44","userID":17},
{"accountID":18,"IBAN":"KW28 CAKJ OGHS M3MU GAFH HOZP QDKX OP","balance":"$235.18","userID":18}]
