[{"id":1,"first_name":"Shelton","last_name":"Slainey","email":"sslainey0@mapquest.com","password":"5qgUPfOXk5gy","account":[{"id":1,"iban":"GT05 WQ2M H45O PPFW GFZQ XRVH JKHJ","balance":"€5,89","transaction":[{"tipo":"Debe","monto":"€7,75","detalle":"ultrices posuere cubilia curae mauris viverra diam vitae quam suspendisse potenti nullam porttitor lacus at turpis donec posuere metus"}]},{"id":2,"iban":"FR58 8400 7043 73VC 90EZ 2796 R77","balance":"€6,32","transaction":[{"tipo":"Debe","monto":"€7,38","detalle":"est quam pharetra magna ac consequat metus sapien ut nunc vestibulum"},{"tipo":"Haber","monto":"€9,37","detalle":"phasellus id sapien in sapien iaculis congue vivamus metus arcu adipiscing molestie hendrerit at vulputate vitae nisl"}]},{"id":3,"iban":"LB03 8923 BXEZ 3CRF 1DWU 4ORA ZKJS","balance":"€9,39","transaction":[{"tipo":"Haber","monto":"€3,88","detalle":"sollicitudin mi sit amet lobortis sapien sapien non mi integer ac neque"},{"tipo":"Debe","monto":"€3,06","detalle":"diam vitae quam suspendisse potenti nullam porttitor lacus at turpis donec"}]}]},
{"id":2,"first_name":"Maryanna","last_name":"Stollwerk","email":"mstollwerk1@mail.ru","password":"PRxgCddmxN","account":[{"id":1,"iban":"AE36 3939 7592 2103 2997 648","balance":"€5,92","transaction":[{"tipo":"Haber","monto":"€8,60","detalle":"eget rutrum at lorem integer tincidunt ante vel ipsum praesent blandit lacinia erat vestibulum sed magna"},{"tipo":"Haber","monto":"€5,05","detalle":"vel est donec odio justo sollicitudin ut suscipit a feugiat et eros vestibulum ac est lacinia"}]},{"id":2,"iban":"ES61 0485 6808 6091 7517 1151","balance":"€5,24","transaction":[{"tipo":"Haber","monto":"€8,35","detalle":"ante ipsum primis in faucibus orci luctus et ultrices posuere cubilia curae"},{"tipo":"Debe","monto":"€2,84","detalle":"neque libero convallis eget eleifend luctus ultricies eu nibh quisque id justo sit amet sapien"},{"tipo":"Debe","monto":"€0,13","detalle":"congue vivamus metus arcu adipiscing molestie hendrerit at vulputate vitae nisl aenean lectus pellentesque eget nunc"}]},{"id":3,"iban":"FR48 3975 4388 561T IVCD WPDF U54","balance":"€4,74","transaction":[{"tipo":"Debe","monto":"€8,46","detalle":"odio cras mi pede malesuada in imperdiet et commodo vulputate justo in blandit"},{"tipo":"Debe","monto":"€7,00","detalle":"scelerisque quam turpis adipiscing lorem vitae mattis nibh ligula nec sem"},{"tipo":"Haber","monto":"€7,92","detalle":"lectus suspendisse potenti in eleifend quam a odio in hac"}]}]},
{"id":3,"first_name":"Georgie","last_name":"Hoogendorp","email":"ghoogendorp2@accuweather.com","password":"U6Jvj2kpoq","account":[{"id":1,"iban":"BH64 PRCO YOS1 MDHE JSJY N8","balance":"€1,89","transaction":[{"tipo":"Debe","monto":"€7,08","detalle":"mi in porttitor pede justo eu massa donec dapibus duis at velit eu est congue elementum"},{"tipo":"Debe","monto":"€7,42","detalle":"hac habitasse platea dictumst aliquam augue quam sollicitudin vitae consectetuer eget rutrum at"},{"tipo":"Haber","monto":"€6,88","detalle":"a feugiat et eros vestibulum ac est lacinia nisi venenatis tristique fusce congue diam id ornare imperdiet"}]},{"id":2,"iban":"LT19 0854 9323 8881 1750","balance":"€6,96","transaction":[{"tipo":"Debe","monto":"€0,37","detalle":"amet nunc viverra dapibus nulla suscipit ligula in lacus curabitur at ipsum ac tellus semper interdum mauris"},{"tipo":"Haber","monto":"€3,46","detalle":"ultrices vel augue vestibulum ante ipsum primis in faucibus orci luctus et ultrices posuere cubilia curae"}]}]},
{"id":4,"first_name":"Duky","last_name":"De Ruggiero","email":"dderuggiero3@multiply.com","password":"00I0djj8","account":[{"id":1,"iban":"IE41 AWXK 4048 8377 7869 81","balance":"€6,86","transaction":[{"tipo":"Haber","monto":"€8,14","detalle":"duis mattis egestas metus aenean fermentum donec ut mauris eget massa tempor"},{"tipo":"Haber","monto":"€2,52","detalle":"quis libero nullam sit amet turpis elementum ligula vehicula consequat morbi a ipsum integer a nibh in quis justo"},{"tipo":"Debe","monto":"€2,60","detalle":"amet sem fusce consequat nulla nisl nunc nisl duis bibendum"}]}]},
{"id":5,"first_name":"Trix","last_name":"Hubbocks","email":"thubbocks4@miibeian.gov.cn","password":"iQltxK75gCIi","account":[{"id":1,"iban":"MD98 KWV1 XN6F I9C9 W7CD R8R0","balance":"€5,83","transaction":[{"tipo":"Debe","monto":"€1,78","detalle":"platea dictumst morbi vestibulum velit id pretium iaculis diam erat fermentum justo nec condimentum neque sapien placerat ante nulla justo"},{"tipo":"Debe","monto":"€8,85","detalle":"ultrices libero non mattis pulvinar nulla pede ullamcorper augue a suscipit nulla elit ac"},{"tipo":"Haber","monto":"€8,38","detalle":"ut erat id mauris vulputate elementum nullam varius nulla facilisi cras non velit nec nisi vulputate nonummy maecenas tincidunt lacus"}]}]},
{"id":6,"first_name":"Lianne","last_name":"Gounot","email":"lgounot5@state.tx.us","password":"WPYtto3fSwJ3","account":[{"id":1,"iban":"RO30 CCAR QPCZ 16FV TQLP XIA4","balance":"€2,87","transaction":[{"tipo":"Debe","monto":"€7,10","detalle":"proin interdum mauris non ligula pellentesque ultrices phasellus id sapien in sapien iaculis congue vivamus metus arcu adipiscing"},{"tipo":"Haber","monto":"€9,07","detalle":"ut massa quis augue luctus tincidunt nulla mollis molestie lorem quisque ut"}]},{"id":2,"iban":"SI30 7848 0599 1472 749","balance":"€5,65","transaction":[{"tipo":"Haber","monto":"€1,38","detalle":"vel est donec odio justo sollicitudin ut suscipit a feugiat et eros vestibulum ac est lacinia nisi venenatis tristique"},{"tipo":"Haber","monto":"€3,13","detalle":"quisque porta volutpat erat quisque erat eros viverra eget congue eget semper rutrum nulla nunc purus phasellus in felis"},{"tipo":"Debe","monto":"€7,87","detalle":"tempus vel pede morbi porttitor lorem id ligula suspendisse ornare consequat lectus in"}]}]},
{"id":7,"first_name":"Tilly","last_name":"Dallow","email":"tdallow6@reverbnation.com","password":"c5rR6a8go","account":[{"id":1,"iban":"EE37 3465 7921 7227 3693","balance":"€0,86","transaction":[{"tipo":"Haber","monto":"€9,27","detalle":"a pede posuere nonummy integer non velit donec diam neque vestibulum"}]},{"id":2,"iban":"PK62 EHLY Z0Y3 OZI7 5YS4 0G9V","balance":"€9,09","transaction":[{"tipo":"Haber","monto":"€1,68","detalle":"ullamcorper purus sit amet nulla quisque arcu libero rutrum ac lobortis vel dapibus at diam nam tristique tortor eu pede"},{"tipo":"Debe","monto":"€4,52","detalle":"iaculis diam erat fermentum justo nec condimentum neque sapien placerat ante nulla justo"}]},{"id":3,"iban":"CH60 0853 8IHY POTA Q3JV 3","balance":"€9,41","transaction":[{"tipo":"Debe","monto":"€5,34","detalle":"diam neque vestibulum eget vulputate ut ultrices vel augue vestibulum ante ipsum primis"},{"tipo":"Haber","monto":"€7,08","detalle":"tellus semper interdum mauris ullamcorper purus sit amet nulla quisque arcu libero rutrum ac lobortis vel dapibus at diam"},{"tipo":"Debe","monto":"€8,08","detalle":"ultrices phasellus id sapien in sapien iaculis congue vivamus metus arcu adipiscing molestie hendrerit"}]}]},
{"id":8,"first_name":"Dareen","last_name":"Bainton","email":"dbainton7@spotify.com","password":"KCXzrvlio","account":[{"id":1,"iban":"KZ34 910L JC6Q NEDD 2KA4","balance":"€5,61","transaction":[{"tipo":"Debe","monto":"€1,98","detalle":"vestibulum eget vulputate ut ultrices vel augue vestibulum ante ipsum primis in faucibus orci luctus"}]},{"id":2,"iban":"FI25 6278 7853 2043 04","balance":"€5,31","transaction":[{"tipo":"Debe","monto":"€8,15","detalle":"non lectus aliquam sit amet diam in magna bibendum imperdiet nullam orci pede venenatis"},{"tipo":"Haber","monto":"€6,50","detalle":"purus phasellus in felis donec semper sapien a libero nam dui proin leo odio porttitor"},{"tipo":"Haber","monto":"€1,24","detalle":"pretium nisl ut volutpat sapien arcu sed augue aliquam erat volutpat in congue etiam justo etiam pretium"}]},{"id":3,"iban":"CY13 2149 8614 N5MS FXLT MGPO AW7V","balance":"€4,24","transaction":[{"tipo":"Debe","monto":"€3,93","detalle":"suscipit ligula in lacus curabitur at ipsum ac tellus semper interdum mauris ullamcorper purus sit amet nulla quisque arcu libero"},{"tipo":"Haber","monto":"€9,77","detalle":"habitasse platea dictumst etiam faucibus cursus urna ut tellus nulla ut erat"},{"tipo":"Debe","monto":"€6,08","detalle":"porttitor lacus at turpis donec posuere metus vitae ipsum aliquam non mauris morbi non lectus"}]}]},
{"id":9,"first_name":"Lilli","last_name":"Quye","email":"lquye8@dell.com","password":"hu0sIBm","account":[{"id":1,"iban":"HR28 8795 9958 8638 0974 3","balance":"€0,06","transaction":[{"tipo":"Haber","monto":"€4,64","detalle":"molestie lorem quisque ut erat curabitur gravida nisi at nibh in hac habitasse"},{"tipo":"Haber","monto":"€6,22","detalle":"sem fusce consequat nulla nisl nunc nisl duis bibendum felis sed interdum venenatis turpis"}]},{"id":2,"iban":"MU45 PERZ 6310 1628 1600 2808 405N UV","balance":"€4,11","transaction":[{"tipo":"Debe","monto":"€2,68","detalle":"tellus nulla ut erat id mauris vulputate elementum nullam varius nulla facilisi cras non velit nec nisi vulputate nonummy"},{"tipo":"Haber","monto":"€1,84","detalle":"luctus rutrum nulla tellus in sagittis dui vel nisl duis ac nibh fusce lacus purus aliquet at feugiat"},{"tipo":"Haber","monto":"€7,47","detalle":"dolor sit amet consectetuer adipiscing elit proin interdum mauris non ligula pellentesque ultrices phasellus id sapien"}]},{"id":3,"iban":"EE62 7551 1889 8012 3632","balance":"€8,35","transaction":[{"tipo":"Debe","monto":"€8,10","detalle":"in porttitor pede justo eu massa donec dapibus duis at velit eu est congue elementum in hac"},{"tipo":"Debe","monto":"€6,36","detalle":"quisque ut erat curabitur gravida nisi at nibh in hac habitasse platea dictumst aliquam augue quam sollicitudin"},{"tipo":"Debe","monto":"€1,85","detalle":"bibendum imperdiet nullam orci pede venenatis non sodales sed tincidunt eu felis fusce posuere felis sed lacus"}]}]},
{"id":10,"first_name":"Cosimo","last_name":"Ellicombe","email":"cellicombe9@sphinn.com","password":"E61W3sNd","account":[{"id":1,"iban":"KW40 CHBE WEOQ HWFY NFBN MDEE SZ0K 03","balance":"€8,94","transaction":[{"tipo":"Debe","monto":"€4,10","detalle":"tincidunt lacus at velit vivamus vel nulla eget eros elementum pellentesque quisque porta volutpat erat quisque"},{"tipo":"Haber","monto":"€3,16","detalle":"varius ut blandit non interdum in ante vestibulum ante ipsum primis in faucibus orci luctus et ultrices posuere cubilia curae"}]},{"id":2,"iban":"LB55 5532 EUTX D7IT 7LIS IVLU FZXG","balance":"€2,78","transaction":[{"tipo":"Haber","monto":"€8,51","detalle":"in faucibus orci luctus et ultrices posuere cubilia curae donec pharetra magna vestibulum aliquet ultrices erat tortor sollicitudin"}]}]}]
